# This file uses centimeters as units for non-parametric coordinates.

mtllib jar_fill03.mtl
g set2 tweakSet2
v 0.000002 0.124129 0.000000
v 0.826567 1.789353 -0.268567
v 0.703120 1.789353 -0.510845
v 0.510848 1.789353 -0.703118
v 0.268570 1.789353 -0.826565
v 0.000002 1.789353 -0.869101
v -0.268565 1.789353 -0.826565
v -0.510844 1.789353 -0.703118
v -0.703118 1.789353 -0.510845
v -0.826564 1.789353 -0.268567
v -0.869097 1.789353 0.000000
v -0.826564 1.789353 0.268567
v -0.703118 1.789353 0.510845
v -0.510844 1.789353 0.703118
v -0.268565 1.789353 0.826564
v 0.000002 1.789353 0.869101
v 0.268570 1.789353 0.826564
v 0.510848 1.789353 0.703118
v 0.703120 1.789353 0.510845
v 0.826567 1.789353 0.268567
v 0.869103 1.789353 0.000000
v 0.743919 0.124129 -0.241713
v 0.826567 0.209960 -0.268567
v 0.632816 0.124129 -0.459766
v 0.703120 0.209960 -0.510845
v 0.459768 0.124129 -0.632813
v 0.510848 0.209960 -0.703118
v 0.241716 0.124129 -0.743917
v 0.268570 0.209960 -0.826565
v 0.000002 0.124129 -0.782200
v 0.000002 0.209960 -0.869101
v -0.241712 0.124129 -0.743917
v -0.268565 0.209960 -0.826565
v -0.459764 0.124129 -0.632813
v -0.510844 0.209960 -0.703118
v -0.632811 0.124129 -0.459766
v -0.703118 0.209960 -0.510845
v -0.743916 0.124129 -0.241713
v -0.826564 0.209960 -0.268567
v -0.782198 0.124129 0.000000
v -0.869097 0.209960 0.000000
v -0.743916 0.124129 0.241713
v -0.826564 0.209960 0.268567
v -0.632811 0.124129 0.459766
v -0.703118 0.209960 0.510845
v -0.459764 0.124129 0.632813
v -0.510844 0.209960 0.703118
v -0.241712 0.124129 0.743916
v -0.268565 0.209960 0.826564
v 0.000002 0.124129 0.782200
v 0.000002 0.209960 0.869101
v 0.241716 0.124129 0.743916
v 0.268570 0.209960 0.826564
v 0.459768 0.124129 0.632813
v 0.510848 0.209960 0.703118
v 0.632816 0.124129 0.459766
v 0.703120 0.209960 0.510845
v 0.743918 0.124129 0.241713
v 0.826567 0.209960 0.268567
v 0.782202 0.124129 -0.000000
v 0.869103 0.209960 0.000000
v 0.000002 2.103511 -0.000000
v 0.324322 1.999179 -0.105378
v 0.615477 1.889882 -0.199980
v 0.275882 1.999179 -0.200441
v 0.523555 1.889883 -0.380384
v 0.341013 1.999179 -0.000000
v 0.647153 1.889882 -0.000000
v 0.324322 1.999179 0.105378
v 0.615477 1.889883 0.199980
v 0.200445 1.999179 -0.275883
v 0.380388 1.889882 -0.523554
v 0.105380 1.999179 -0.324320
v 0.199983 1.889883 -0.615475
v 0.000002 1.999179 -0.341010
v 0.000002 1.889882 -0.647149
v -0.105374 1.999179 -0.324320
v -0.199978 1.889882 -0.615475
v -0.200437 1.999179 -0.275883
v -0.380383 1.889882 -0.523554
v -0.275879 1.999179 -0.200440
v -0.523551 1.889883 -0.380384
v -0.324318 1.999179 -0.105378
v -0.615473 1.889883 -0.199980
v -0.341009 1.999179 -0.000000
v -0.647147 1.889882 -0.000000
v -0.324318 1.999179 0.105378
v -0.615473 1.889883 0.199980
v -0.275879 1.999179 0.200441
v -0.523551 1.889882 0.380384
v -0.200437 1.999179 0.275883
v -0.380383 1.889882 0.523554
v -0.105374 1.999179 0.324320
v -0.199978 1.889882 0.615475
v 0.000002 1.999179 0.341010
v 0.000002 1.889882 0.647148
v 0.105380 1.999179 0.324320
v 0.199983 1.889883 0.615474
v 0.200445 1.999179 0.275882
v 0.380388 1.889882 0.523554
v 0.275882 1.999179 0.200440
v 0.523555 1.889883 0.380384
vt 0.557484 0.465254
vt 0.984417 0.159686
vt 0.953817 0.099629
vt 0.906155 0.051968
vt 0.846099 0.021367
vt 0.779525 0.010823
vt 0.712952 0.021367
vt 0.652895 0.051968
vt 0.605234 0.099629
vt 0.574634 0.159686
vt 0.564090 0.226259
vt 0.574634 0.292832
vt 0.605234 0.352889
vt 0.652895 0.400550
vt 0.712952 0.431150
vt 0.779525 0.441694
vt 0.846099 0.431150
vt 0.906155 0.400550
vt 0.953816 0.352889
vt 0.984417 0.292832
vt 0.994961 0.226259
vt 0.963930 0.165481
vt 0.936389 0.111429
vt 0.893494 0.068533
vt 0.839442 0.040993
vt 0.779525 0.031503
vt 0.719609 0.040993
vt 0.665557 0.068533
vt 0.622662 0.111429
vt 0.595121 0.165481
vt 0.585631 0.225397
vt 0.595121 0.285314
vt 0.622661 0.339365
vt 0.665557 0.382261
vt 0.719609 0.409802
vt 0.779525 0.419291
vt 0.839442 0.409802
vt 0.893494 0.382261
vt 0.936389 0.339365
vt 0.963930 0.285314
vt 0.779525 0.217642
vt 0.973420 0.225397
vt 0.033905 0.001496
vt 0.006348 0.001496
vt 0.061462 0.001496
vt 0.089019 0.001496
vt 0.116576 0.001496
vt 0.144132 0.001496
vt 0.171689 0.001496
vt 0.199246 0.001496
vt 0.226803 0.001496
vt 0.254360 0.001496
vt 0.281916 0.001496
vt 0.309473 0.001496
vt 0.337030 0.001496
vt 0.364587 0.001496
vt 0.392143 0.001496
vt 0.419700 0.001496
vt 0.447257 0.001496
vt 0.474814 0.001496
vt 0.502371 0.001496
vt 0.529927 0.001496
vt 0.557484 0.001496
vt 0.857812 0.681846
vt 0.950461 0.711949
vt 0.924792 0.762327
vt 0.845980 0.705067
vt 0.861889 0.656106
vt 0.959306 0.656106
vt 0.884812 0.802307
vt 0.827553 0.723495
vt 0.857812 0.630365
vt 0.950461 0.600262
vt 0.845980 0.607145
vt 0.924792 0.549885
vt 0.834435 0.827975
vt 0.804332 0.735327
vt 0.778591 0.836820
vt 0.778591 0.739404
vt 0.722747 0.827975
vt 0.752851 0.735327
vt 0.672370 0.802307
vt 0.729630 0.723495
vt 0.632390 0.762327
vt 0.006349 0.465254
vt 0.711202 0.705067
vt 0.033905 0.465254
vt 0.606722 0.711949
vt 0.699370 0.681846
vt 0.061462 0.465254
vt 0.597876 0.656106
vt 0.089019 0.465254
vt 0.695293 0.656106
vt 0.116576 0.465254
vt 0.606722 0.600262
vt 0.144132 0.465254
vt 0.699370 0.630365
vt 0.171689 0.465254
vt 0.632390 0.549885
vt 0.199246 0.465254
vt 0.711202 0.607145
vt 0.226803 0.465254
vt 0.672370 0.509905
vt 0.254359 0.465254
vt 0.729630 0.588717
vt 0.281916 0.465254
vt 0.309473 0.465254
vt 0.722747 0.484236
vt 0.337030 0.465254
vt 0.752851 0.576885
vt 0.364587 0.465254
vt 0.778591 0.475392
vt 0.392143 0.465254
vt 0.778591 0.572808
vt 0.419700 0.465254
vt 0.834435 0.484237
vt 0.447257 0.465254
vt 0.804332 0.576885
vt 0.474814 0.465254
vt 0.884812 0.509905
vt 0.502371 0.465254
vt 0.827553 0.588717
vt 0.529927 0.465254
vt 0.778591 0.656106
vt 0.980494 0.721708
vt 0.990885 0.656106
vt 0.950340 0.780889
vt 0.903374 0.827855
vt 0.844194 0.858009
vt 0.778591 0.868399
vt 0.712989 0.858009
vt 0.653808 0.827855
vt 0.606841 0.780889
vt 0.576687 0.721708
vt 0.566298 0.656106
vt 0.576687 0.590503
vt 0.606841 0.531323
vt 0.653808 0.484357
vt 0.712989 0.454203
vt 0.778591 0.443812
vt 0.844194 0.454203
vt 0.903374 0.484357
vt 0.950340 0.531323
vt 0.980494 0.590503
vn 0.200367 -0.977555 -0.065103
vn 0.950037 -0.046288 -0.308685
vn 0.998928 -0.046288 0.000002
vn 0.210678 -0.977556 0.000000
vn 0.170442 -0.977555 -0.123834
vn 0.808150 -0.046288 -0.587155
vn 0.123833 -0.977556 -0.170442
vn 0.587155 -0.046288 -0.808150
vn 0.065103 -0.977555 -0.200367
vn 0.308685 -0.046288 -0.950037
vn -0.000000 -0.977556 -0.210678
vn -0.000000 -0.046288 -0.998928
vn -0.065103 -0.977555 -0.200367
vn -0.308686 -0.046288 -0.950037
vn -0.123834 -0.977555 -0.170442
vn -0.587154 -0.046288 -0.808151
vn -0.170442 -0.977556 -0.123834
vn -0.808149 -0.046288 -0.587156
vn -0.200368 -0.977555 -0.065102
vn -0.950040 -0.046288 -0.308679
vn -0.210678 -0.977556 0.000000
vn -0.998928 -0.046287 0.000000
vn -0.200368 -0.977555 0.065103
vn -0.950039 -0.046288 0.308679
vn -0.170442 -0.977556 0.123834
vn -0.808149 -0.046288 0.587157
vn -0.123833 -0.977555 0.170442
vn -0.587154 -0.046288 0.808151
vn -0.065103 -0.977555 0.200367
vn -0.308686 -0.046288 0.950037
vn -0.000000 -0.977555 0.210678
vn -0.000000 -0.046288 0.998928
vn 0.065103 -0.977555 0.200367
vn 0.308685 -0.046288 0.950037
vn 0.123833 -0.977556 0.170442
vn 0.587156 -0.046288 0.808150
vn 0.170443 -0.977555 0.123834
vn 0.808150 -0.046288 0.587155
vn 0.200367 -0.977556 0.065103
vn 0.950037 -0.046288 0.308686
vn 0.000000 -1.000000 0.000000
vn 0.809017 0.000000 -0.587785
vn 0.951057 0.000000 -0.309017
vn 0.587785 0.000000 -0.809017
vn 0.309016 0.000000 -0.951057
vn -0.000000 0.000000 -1.000000
vn -0.309017 0.000000 -0.951057
vn -0.587784 0.000000 -0.809018
vn -0.809016 0.000000 -0.587787
vn -0.951059 0.000000 -0.309010
vn -1.000000 0.000000 0.000000
vn -0.951059 0.000000 0.309010
vn -0.809016 0.000000 0.587787
vn -0.587784 0.000000 0.809018
vn -0.309017 0.000000 0.951057
vn -0.000000 0.000000 1.000000
vn 0.309016 0.000000 0.951057
vn 0.587786 0.000000 0.809017
vn 0.809017 0.000000 0.587785
vn 0.951056 0.000000 0.309017
vn 1.000000 0.000000 0.000002
vn 0.309934 0.945410 -0.100707
vn 0.362246 0.924621 -0.117702
vn 0.308145 0.924621 -0.223880
vn 0.263647 0.945410 -0.191550
vn 0.325884 0.945410 0.000001
vn 0.380889 0.924621 0.000001
vn 0.223881 0.924621 -0.308145
vn 0.191552 0.945409 -0.263646
vn 0.309934 0.945410 0.100707
vn 0.362246 0.924621 0.117703
vn 0.263648 0.945410 0.191548
vn 0.308146 0.924621 0.223880
vn 0.117701 0.924621 -0.362247
vn 0.100704 0.945409 -0.309935
vn -0.000000 0.924621 -0.380889
vn -0.000001 0.945409 -0.325886
vn -0.117701 0.924621 -0.362246
vn -0.100704 0.945409 -0.309935
vn -0.223880 0.924621 -0.308145
vn -0.191550 0.945410 -0.263646
vn -0.308144 0.924622 -0.223880
vn -0.263646 0.945409 -0.191551
vn -0.362246 0.924621 -0.117700
vn -0.309934 0.945410 -0.100706
vn -0.380890 0.924621 -0.000000
vn -0.325885 0.945409 -0.000000
vn -0.362246 0.924621 0.117700
vn -0.309934 0.945410 0.100706
vn -0.308144 0.924622 0.223880
vn -0.263646 0.945410 0.191551
vn -0.223880 0.924621 0.308145
vn -0.191550 0.945410 0.263646
vn -0.117701 0.924621 0.362246
vn -0.100704 0.945409 0.309935
vn -0.000000 0.924621 0.380889
vn -0.000000 0.945409 0.325885
vn 0.117701 0.924621 0.362247
vn 0.100703 0.945409 0.309936
vn 0.223881 0.924621 0.308146
vn 0.191551 0.945409 0.263646
vn -0.000001 1.000000 -0.000000
vn 0.392392 0.910919 -0.127497
vn 0.412587 0.910918 0.000000
vn 0.333789 0.910919 -0.242511
vn 0.242512 0.910919 -0.333788
vn 0.127496 0.910919 -0.392393
vn -0.000000 0.910919 -0.412585
vn -0.127496 0.910919 -0.392392
vn -0.242511 0.910919 -0.333788
vn -0.333787 0.910920 -0.242510
vn -0.392391 0.910920 -0.127494
vn -0.412587 0.910918 0.000000
vn -0.392391 0.910919 0.127494
vn -0.333787 0.910920 0.242510
vn -0.242511 0.910919 0.333788
vn -0.127496 0.910919 0.392391
vn -0.000000 0.910919 0.412585
vn 0.127496 0.910919 0.392392
vn 0.242512 0.910919 0.333788
vn 0.333789 0.910919 0.242512
vn 0.392393 0.910918 0.127497
s 1
g pCylinder6
usemtl initialShadingGroup
f 22/22/1 23/2/2 61/21/3 60/42/4
f 23/2/2 22/22/1 24/23/5 25/3/6
f 25/3/6 24/23/5 26/24/7 27/4/8
f 27/4/8 26/24/7 28/25/9 29/5/10
f 29/5/10 28/25/9 30/26/11 31/6/12
f 31/6/12 30/26/11 32/27/13 33/7/14
f 33/7/14 32/27/13 34/28/15 35/8/16
f 35/8/16 34/28/15 36/29/17 37/9/18
f 37/9/18 36/29/17 38/30/19 39/10/20
f 39/10/20 38/30/19 40/31/21 41/11/22
f 41/11/22 40/31/21 42/32/23 43/12/24
f 43/12/24 42/32/23 44/33/25 45/13/26
f 45/13/26 44/33/25 46/34/27 47/14/28
f 47/14/28 46/34/27 48/35/29 49/15/30
f 49/15/30 48/35/29 50/36/31 51/16/32
f 51/16/32 50/36/31 52/37/33 53/17/34
f 53/17/34 52/37/33 54/38/35 55/18/36
f 55/18/36 54/38/35 56/39/37 57/19/38
f 57/19/38 56/39/37 58/40/39 59/20/40
f 59/20/40 58/40/39 60/42/4 61/21/3
f 24/23/5 22/22/1 1/41/41
f 26/24/7 24/23/5 1/41/41
f 28/25/9 26/24/7 1/41/41
f 30/26/11 28/25/9 1/41/41
f 32/27/13 30/26/11 1/41/41
f 34/28/15 32/27/13 1/41/41
f 36/29/17 34/28/15 1/41/41
f 38/30/19 36/29/17 1/41/41
f 40/31/21 38/30/19 1/41/41
f 42/32/23 40/31/21 1/41/41
f 44/33/25 42/32/23 1/41/41
f 46/34/27 44/33/25 1/41/41
f 48/35/29 46/34/27 1/41/41
f 50/36/31 48/35/29 1/41/41
f 52/37/33 50/36/31 1/41/41
f 54/38/35 52/37/33 1/41/41
f 56/39/37 54/38/35 1/41/41
f 58/40/39 56/39/37 1/41/41
f 60/42/4 58/40/39 1/41/41
f 22/22/1 60/42/4 1/41/41
f 25/43/6 3/87/42 2/85/43 23/44/2
f 27/45/8 4/90/44 3/87/42 25/43/6
f 29/46/10 5/92/45 4/90/44 27/45/8
f 31/47/12 6/94/46 5/92/45 29/46/10
f 33/48/14 7/96/47 6/94/46 31/47/12
f 35/49/16 8/98/48 7/96/47 33/48/14
f 37/50/18 9/100/49 8/98/48 35/49/16
f 39/51/20 10/102/50 9/100/49 37/50/18
f 41/52/22 11/104/51 10/102/50 39/51/20
f 43/53/24 12/106/52 11/104/51 41/52/22
f 45/54/26 13/107/53 12/106/52 43/53/24
f 47/55/28 14/109/54 13/107/53 45/54/26
f 49/56/30 15/111/55 14/109/54 47/55/28
f 51/57/32 16/113/56 15/111/55 49/56/30
f 53/58/34 17/115/57 16/113/56 51/57/32
f 55/59/36 18/117/58 17/115/57 53/58/34
f 57/60/38 19/119/59 18/117/58 55/59/36
f 59/61/40 20/121/60 19/119/59 57/60/38
f 61/62/3 21/123/61 20/121/60 59/61/40
f 23/63/2 2/1/43 21/123/61 61/62/3
s 2
f 63/64/62 64/65/63 66/66/64 65/67/65
f 64/65/63 63/64/62 67/68/66 68/69/67
f 65/67/65 66/66/64 72/70/68 71/71/69
f 68/69/67 67/68/66 69/72/70 70/73/71
f 70/73/71 69/72/70 101/74/72 102/75/73
f 71/71/69 72/70/68 74/76/74 73/77/75
f 73/77/75 74/76/74 76/78/76 75/79/77
f 75/79/77 76/78/76 78/80/78 77/81/79
f 77/81/79 78/80/78 80/82/80 79/83/81
f 79/83/81 80/82/80 82/84/82 81/86/83
f 81/86/83 82/84/82 84/88/84 83/89/85
f 83/89/85 84/88/84 86/91/86 85/93/87
f 85/93/87 86/91/86 88/95/88 87/97/89
f 87/97/89 88/95/88 90/99/90 89/101/91
f 89/101/91 90/99/90 92/103/92 91/105/93
f 91/105/93 92/103/92 94/108/94 93/110/95
f 93/110/95 94/108/94 96/112/96 95/114/97
f 95/114/97 96/112/96 98/116/98 97/118/99
f 97/118/99 98/116/98 100/120/100 99/122/101
f 99/122/101 100/120/100 102/75/73 101/74/72
f 62/124/102 63/64/62 65/67/65
f 63/64/62 62/124/102 67/68/66
f 67/68/66 62/124/102 69/72/70
f 62/124/102 65/67/65 71/71/69
f 62/124/102 71/71/69 73/77/75
f 62/124/102 73/77/75 75/79/77
f 62/124/102 75/79/77 77/81/79
f 62/124/102 77/81/79 79/83/81
f 62/124/102 79/83/81 81/86/83
f 62/124/102 81/86/83 83/89/85
f 62/124/102 83/89/85 85/93/87
f 62/124/102 85/93/87 87/97/89
f 62/124/102 87/97/89 89/101/91
f 62/124/102 89/101/91 91/105/93
f 62/124/102 91/105/93 93/110/95
f 62/124/102 93/110/95 95/114/97
f 62/124/102 95/114/97 97/118/99
f 62/124/102 97/118/99 99/122/101
f 62/124/102 99/122/101 101/74/72
f 62/124/102 101/74/72 69/72/70
f 2/125/103 64/65/63 68/69/67 21/126/104
f 2/125/103 3/127/105 66/66/64 64/65/63
f 72/70/68 66/66/64 3/127/105 4/128/106
f 74/76/74 72/70/68 4/128/106 5/129/107
f 76/78/76 74/76/74 5/129/107 6/130/108
f 78/80/78 76/78/76 6/130/108 7/131/109
f 80/82/80 78/80/78 7/131/109 8/132/110
f 82/84/82 80/82/80 8/132/110 9/133/111
f 84/88/84 82/84/82 9/133/111 10/134/112
f 86/91/86 84/88/84 10/134/112 11/135/113
f 88/95/88 86/91/86 11/135/113 12/136/114
f 13/137/115 90/99/90 88/95/88 12/136/114
f 14/138/116 92/103/92 90/99/90 13/137/115
f 15/139/117 94/108/94 92/103/92 14/138/116
f 16/140/118 96/112/96 94/108/94 15/139/117
f 17/141/119 98/116/98 96/112/96 16/140/118
f 18/142/120 100/120/100 98/116/98 17/141/119
f 19/143/121 102/75/73 100/120/100 18/142/120
f 20/144/122 70/73/71 102/75/73 19/143/121
f 21/126/104 68/69/67 70/73/71 20/144/122
