# This file uses centimeters as units for non-parametric coordinates.

mtllib shelf_brace.mtl
g default
v -9.120920 -0.893374 0.606533
v -11.039596 1.078744 0.606533
v -11.275038 0.869953 0.579988
v -11.253531 0.727950 0.579988
v -11.220360 0.585641 0.579988
v -11.135810 0.452022 0.579988
v -11.013741 0.335987 0.579988
v -10.885742 0.254850 0.579988
v -10.711469 0.179403 0.579988
v -10.512298 0.136783 0.579988
v -10.296507 0.109266 0.579988
v -10.080258 0.092685 0.579988
v -9.864009 0.076104 0.579988
v -9.648218 0.048586 0.579988
v -9.449047 0.005966 0.579988
v -9.274774 -0.069481 0.579988
v -9.146774 -0.150618 0.579988
v -9.024707 -0.266652 0.579988
v -8.940155 -0.400272 0.579988
v -8.906984 -0.542581 0.579988
v -8.908487 -0.719176 0.579988
v -8.906984 -0.542581 1.020416
v -8.908487 -0.719176 1.020416
v -8.940155 -0.400272 1.020416
v -9.024707 -0.266652 1.020416
v -9.146774 -0.150618 1.020416
v -9.274774 -0.069481 1.020416
v -9.449047 0.005966 1.020416
v -9.648218 0.048586 1.020416
v -9.864009 0.076104 1.020416
v -10.080258 0.092685 1.020416
v -10.296507 0.109266 1.020416
v -10.512298 0.136783 1.020416
v -10.711469 0.179403 1.020416
v -10.885742 0.254850 1.020416
v -11.013741 0.335987 1.020416
v -11.135810 0.452022 1.020416
v -11.220360 0.585641 1.020416
v -11.253531 0.727950 1.020416
v -11.275038 0.869953 1.020416
v -11.039596 1.078744 0.993870
v -9.120920 -0.893374 0.993870
v -10.081322 -0.040837 0.606533
v -10.085775 -0.099935 0.708494
v -10.327296 -0.020091 0.606533
v -10.333886 -0.079008 0.708494
v -10.572452 0.014117 0.606533
v -10.582988 -0.044250 0.708494
v -10.769128 0.057793 0.606533
v -10.787952 0.001267 0.708494
v -10.960346 0.144196 0.606533
v -10.988500 0.091887 0.708494
v -11.094949 0.229182 0.606533
v -11.131810 0.182369 0.708494
v -11.235185 0.365396 0.606533
v -11.280910 0.327195 0.708494
v -11.339161 0.520027 0.606533
v -11.393878 0.495195 0.708494
v -11.384595 0.690718 0.606533
v -11.443810 0.682780 0.708494
v -11.394129 0.892407 0.606533
v -11.453428 0.897811 0.708494
v -11.388939 1.085615 0.606533
v -11.446000 1.102774 0.708494
v -11.325508 1.255497 0.606533
v -11.377030 1.285897 0.708494
v -11.239024 1.327642 0.606533
v -11.277758 1.374185 0.708494
v -11.156723 1.342990 0.606533
v -11.176319 1.399676 0.708494
v -11.061535 1.360140 0.606533
v -11.063833 1.419941 0.708494
v -10.924393 1.346189 0.606533
v -10.907259 1.404018 0.708494
v -10.837659 1.301614 0.606533
v -10.805433 1.351682 0.708494
v -10.778181 1.254584 0.606533
v -10.734157 1.295327 0.708494
v -10.728848 1.181168 0.606533
v -10.673238 1.204665 0.708494
v -10.708824 1.086204 0.606533
v -10.649193 1.090639 0.708494
v -10.713947 1.000021 0.606533
v -10.655505 0.984466 0.708494
v -10.751986 0.923408 0.606533
v -10.702572 0.889673 0.708494
v -10.803827 0.866309 0.606533
v -10.768012 0.817595 0.708494
v -10.884089 0.829084 0.606533
v -10.868362 0.771051 0.708494
v -10.979958 0.819947 0.606533
v -10.981805 0.760238 0.708494
v -11.135439 0.844539 0.606533
v -11.063256 0.773123 0.708494
v -11.103543 0.655957 0.606533
v -11.046845 0.676088 0.708494
v -11.037679 0.539522 0.606533
v -10.990705 0.576848 0.708494
v -10.931909 0.442425 0.606533
v -10.895673 0.489607 0.708494
v -10.810301 0.364950 0.606533
v -10.782983 0.417813 0.708494
v -10.652272 0.300590 0.606533
v -10.634986 0.357540 0.708494
v -10.450863 0.259217 0.606533
v -10.441609 0.317816 0.708494
v -10.264364 0.238495 0.606533
v -10.259127 0.297541 0.708494
v -10.079193 0.226206 0.606533
v -10.074740 0.285304 0.708494
v -9.833220 0.205461 0.606533
v -9.826629 0.264378 0.708494
v -9.588064 0.171253 0.606533
v -9.577528 0.229620 0.708494
v -9.391388 0.127577 0.606533
v -9.372564 0.184103 0.708494
v -9.200170 0.041173 0.606533
v -9.172015 0.093483 0.708494
v -9.065566 -0.043813 0.606533
v -9.028705 0.003001 0.708494
v -8.925331 -0.180027 0.606533
v -8.879605 -0.141826 0.708494
v -8.821355 -0.334658 0.606533
v -8.766638 -0.309825 0.708494
v -8.775921 -0.505348 0.606533
v -8.716705 -0.497411 0.708494
v -8.774627 -0.707037 0.606533
v -8.715329 -0.712442 0.708494
v -8.789483 -0.892936 0.606533
v -8.732422 -0.910094 0.708494
v -8.823533 -1.048681 0.606533
v -8.772011 -1.079081 0.708494
v -8.897690 -1.153561 0.606533
v -8.858955 -1.200104 0.708494
v -9.011192 -1.169883 0.606533
v -8.991596 -1.226569 0.708494
v -9.109019 -1.167293 0.606533
v -9.106720 -1.227093 0.708494
v -9.236123 -1.170682 0.606533
v -9.253257 -1.228511 0.708494
v -9.335283 -1.167590 0.606533
v -9.367508 -1.217658 0.708494
v -9.414322 -1.083359 0.606533
v -9.458345 -1.124102 0.708494
v -9.443990 -0.995798 0.606533
v -9.499601 -1.019294 0.708494
v -9.451692 -0.900835 0.606533
v -9.511323 -0.905270 0.708494
v -9.446568 -0.814651 0.606533
v -9.505010 -0.799096 0.708494
v -9.408529 -0.738039 0.606533
v -9.457944 -0.704304 0.708494
v -9.356688 -0.680940 0.606533
v -9.392503 -0.632226 0.708494
v -9.276426 -0.643714 0.606533
v -9.292153 -0.585682 0.708494
v -9.180557 -0.634577 0.606533
v -9.178712 -0.574869 0.708494
v -9.025077 -0.659169 0.606533
v -9.097260 -0.587754 0.708494
v -9.056972 -0.470588 0.606533
v -9.113671 -0.490719 0.708494
v -9.122837 -0.354152 0.606533
v -9.169810 -0.391478 0.708494
v -9.228606 -0.257055 0.606533
v -9.264843 -0.304237 0.708494
v -9.350215 -0.179581 0.606533
v -9.377533 -0.232443 0.708494
v -9.508244 -0.115221 0.606533
v -9.525530 -0.172170 0.708494
v -9.709653 -0.073847 0.606533
v -9.718906 -0.132446 0.708494
v -9.896151 -0.053125 0.606533
v -9.901388 -0.112171 0.708494
v -8.715329 -0.712442 0.891910
v -8.774627 -0.707037 0.993870
v -8.775921 -0.505348 0.993870
v -8.716705 -0.497411 0.891910
v -8.821355 -0.334658 0.993870
v -8.766638 -0.309825 0.891910
v -8.925331 -0.180027 0.993870
v -8.879605 -0.141826 0.891910
v -9.065566 -0.043813 0.993870
v -9.028705 0.003001 0.891910
v -9.200170 0.041173 0.993870
v -9.172015 0.093483 0.891910
v -9.391388 0.127577 0.993870
v -9.372564 0.184103 0.891910
v -9.588064 0.171253 0.993870
v -9.577528 0.229620 0.891910
v -9.833219 0.205461 0.993870
v -9.826629 0.264378 0.891910
v -10.079193 0.226206 0.993870
v -10.074740 0.285304 0.891910
v -10.264364 0.238495 0.993870
v -10.259127 0.297541 0.891910
v -10.450863 0.259217 0.993870
v -10.441609 0.317816 0.891910
v -10.652272 0.300590 0.993870
v -10.634986 0.357540 0.891910
v -10.810301 0.364950 0.993870
v -10.782983 0.417813 0.891910
v -10.931909 0.442425 0.993870
v -10.895673 0.489607 0.891910
v -11.037679 0.539522 0.993870
v -10.990705 0.576848 0.891910
v -11.103543 0.655957 0.993870
v -11.046845 0.676088 0.891910
v -11.135439 0.844539 0.993870
v -11.063256 0.773123 0.891910
v -11.388939 1.085615 0.993870
v -11.446000 1.102774 0.891910
v -11.377030 1.285897 0.891910
v -11.325508 1.255497 0.993870
v -9.109019 -1.167293 0.993870
v -9.106720 -1.227093 0.891910
v -9.253257 -1.228511 0.891910
v -9.236123 -1.170682 0.993870
v -9.356688 -0.680940 0.993870
v -9.392503 -0.632226 0.891910
v -9.292153 -0.585682 0.891910
v -9.276426 -0.643714 0.993870
v -9.408529 -0.738039 0.993870
v -9.457944 -0.704304 0.891910
v -9.446568 -0.814651 0.993870
v -9.505010 -0.799096 0.891910
v -9.451692 -0.900835 0.993870
v -9.511323 -0.905270 0.891910
v -9.443990 -0.995798 0.993870
v -9.499601 -1.019294 0.891910
v -9.414322 -1.083359 0.993870
v -9.458345 -1.124102 0.891910
v -9.335283 -1.167590 0.993870
v -9.367508 -1.217658 0.891910
v -9.011192 -1.169883 0.993870
v -8.991596 -1.226569 0.891910
v -8.897690 -1.153561 0.993870
v -8.858955 -1.200104 0.891910
v -8.823533 -1.048681 0.993870
v -8.772011 -1.079081 0.891910
v -8.789483 -0.892936 0.993870
v -8.732422 -0.910094 0.891910
v -9.180557 -0.634577 0.993870
v -9.178712 -0.574869 0.891910
v -9.097260 -0.587754 0.891910
v -9.025077 -0.659169 0.993870
v -10.728848 1.181168 0.993870
v -10.673238 1.204665 0.891910
v -10.649193 1.090639 0.891910
v -10.708824 1.086204 0.993870
v -10.778181 1.254584 0.993870
v -10.734158 1.295327 0.891910
v -10.837659 1.301614 0.993870
v -10.805433 1.351682 0.891910
v -10.924393 1.346189 0.993870
v -10.907259 1.404018 0.891910
v -11.061535 1.360140 0.993870
v -11.063833 1.419941 0.891910
v -11.156723 1.342990 0.993870
v -11.176319 1.399676 0.891910
v -11.239024 1.327642 0.993870
v -11.277758 1.374185 0.891910
v -11.394129 0.892407 0.993870
v -11.453428 0.897811 0.891910
v -10.979958 0.819947 0.993870
v -10.981805 0.760238 0.891910
v -10.884089 0.829084 0.993870
v -10.868362 0.771051 0.891910
v -10.803827 0.866309 0.993870
v -10.768012 0.817595 0.891910
v -10.751986 0.923408 0.993870
v -10.702572 0.889673 0.891910
v -10.713947 1.000021 0.993870
v -10.655505 0.984466 0.891910
v -11.384595 0.690718 0.993870
v -11.443810 0.682780 0.891910
v -11.339161 0.520027 0.993870
v -11.393878 0.495195 0.891910
v -11.235185 0.365396 0.993870
v -11.280910 0.327195 0.891910
v -11.094949 0.229182 0.993870
v -11.131810 0.182369 0.891910
v -10.960346 0.144196 0.993870
v -10.988500 0.091887 0.891910
v -10.769128 0.057793 0.993870
v -10.787952 0.001267 0.891910
v -10.572452 0.014117 0.993870
v -10.582988 -0.044250 0.891910
v -10.327296 -0.020091 0.993870
v -10.333886 -0.079008 0.891910
v -10.081322 -0.040837 0.993870
v -10.085775 -0.099935 0.891910
v -9.896151 -0.053125 0.993870
v -9.901388 -0.112171 0.891910
v -9.709653 -0.073847 0.993870
v -9.718906 -0.132446 0.891910
v -9.508244 -0.115221 0.993870
v -9.525530 -0.172170 0.891910
v -9.350215 -0.179581 0.993870
v -9.377533 -0.232443 0.891910
v -9.228606 -0.257055 0.993870
v -9.264843 -0.304237 0.891910
v -9.122837 -0.354152 0.993870
v -9.169811 -0.391478 0.891910
v -9.056972 -0.470588 0.993870
v -9.113671 -0.490719 0.891910
vt 0.222700 0.375549
vt 0.216030 0.494804
vt 0.238581 0.495827
vt 0.245696 0.376763
vt 0.204557 0.374866
vt 0.198541 0.494066
vt 0.260219 0.497366
vt 0.267443 0.377509
vt 0.277849 0.498905
vt 0.284206 0.377135
vt 0.295289 0.500412
vt 0.300841 0.376875
vt 0.308796 0.502095
vt 0.312761 0.375422
vt 0.324602 0.503860
vt 0.327183 0.374811
vt 0.340320 0.506436
vt 0.340023 0.372899
vt 0.355718 0.508905
vt 0.351609 0.371057
vt 0.374997 0.511829
vt 0.364874 0.365542
vt 0.396701 0.512490
vt 0.379403 0.355544
vt 0.417810 0.505631
vt 0.394475 0.351701
vt 0.429866 0.495912
vt 0.403298 0.354081
vt 0.437048 0.486102
vt 0.408155 0.358460
vt 0.442343 0.473947
vt 0.413915 0.363527
vt 0.444214 0.456127
vt 0.420403 0.372341
vt 0.441671 0.443150
vt 0.422269 0.379843
vt 0.437110 0.433494
vt 0.422803 0.385827
vt 0.428575 0.423908
vt 0.421160 0.392745
vt 0.416447 0.417390
vt 0.416202 0.399011
vt 0.403042 0.416488
vt 0.410394 0.403302
vt 0.394346 0.415185
vt 0.402714 0.404974
vt 0.385170 0.415920
vt 0.395400 0.405970
vt 0.377558 0.414730
vt 0.386532 0.404661
vt 0.370669 0.412771
vt 0.377116 0.402533
vt 0.361422 0.410566
vt 0.367866 0.391931
vt 0.348131 0.412269
vt 0.346936 0.399451
vt 0.333394 0.413471
vt 0.332059 0.401169
vt 0.317548 0.414344
vt 0.316635 0.402643
vt 0.301983 0.414509
vt 0.301161 0.402770
vt 0.284036 0.414404
vt 0.283451 0.402959
vt 0.262891 0.413877
vt 0.262516 0.402678
vt 0.244189 0.413159
vt 0.243927 0.402008
vt 0.226196 0.412400
vt 0.226015 0.401250
vt 0.203154 0.411435
vt 0.202911 0.400197
vt 0.181100 0.410718
vt 0.180547 0.399472
vt 0.163491 0.410747
vt 0.162973 0.399512
vt 0.146230 0.410291
vt 0.145184 0.399224
vt 0.132856 0.410709
vt 0.132185 0.399891
vt 0.117432 0.410923
vt 0.116361 0.399732
vt 0.102793 0.411502
vt 0.101916 0.400302
vt 0.089377 0.411559
vt 0.088493 0.400373
vt 0.074456 0.411770
vt 0.073216 0.400500
vt 0.058926 0.414783
vt 0.057599 0.405616
vt 0.044618 0.417778
vt 0.043995 0.409565
vt 0.031771 0.420647
vt 0.032632 0.411886
vt 0.019263 0.422620
vt 0.025890 0.408433
vt 0.009513 0.436542
vt 0.021629 0.401724
vt 0.002627 0.455161
vt 0.015150 0.393291
vt 0.001773 0.470604
vt 0.010428 0.386463
vt 0.006768 0.486784
vt 0.011785 0.376118
vt 0.015142 0.498546
vt 0.015951 0.368624
vt 0.026455 0.507552
vt 0.022189 0.362104
vt 0.038763 0.512916
vt 0.028784 0.357062
vt 0.051800 0.514956
vt 0.036997 0.354857
vt 0.063958 0.513989
vt 0.044828 0.354582
vt 0.076762 0.509768
vt 0.053502 0.357428
vt 0.088315 0.503426
vt 0.061656 0.363266
vt 0.095815 0.499133
vt 0.070840 0.376649
vt 0.105439 0.496202
vt 0.094694 0.374677
vt 0.117086 0.494471
vt 0.111206 0.374476
vt 0.130655 0.493474
vt 0.128117 0.373728
vt 0.144584 0.492887
vt 0.144734 0.373968
vt 0.160854 0.492842
vt 0.163597 0.374146
vt 0.180631 0.493393
vt 0.185460 0.374350
vt 0.076870 0.429735
vt 0.078455 0.441541
vt 0.064121 0.438767
vt 0.062628 0.429083
vt 0.091419 0.429068
vt 0.092249 0.440293
vt 0.104803 0.428382
vt 0.104988 0.439622
vt 0.118792 0.428491
vt 0.118840 0.439631
vt 0.134230 0.427467
vt 0.133859 0.438579
vt 0.146823 0.428037
vt 0.146263 0.439192
vt 0.164317 0.427763
vt 0.163534 0.438883
vt 0.181448 0.428311
vt 0.180568 0.439549
vt 0.203287 0.428962
vt 0.202462 0.440171
vt 0.226217 0.429778
vt 0.225233 0.440924
vt 0.244117 0.430586
vt 0.242952 0.441758
vt 0.262800 0.431426
vt 0.261442 0.442708
vt 0.283914 0.432369
vt 0.282274 0.444080
vt 0.301877 0.432979
vt 0.300293 0.444693
vt 0.317488 0.433428
vt 0.316045 0.445514
vt 0.332870 0.434097
vt 0.331521 0.447268
vt 0.346640 0.434614
vt 0.346020 0.448788
vt 0.358049 0.435419
vt 0.366261 0.454080
vt 0.365776 0.432570
vt 0.371847 0.441959
vt 0.387301 0.486563
vt 0.390757 0.496669
vt 0.372480 0.494120
vt 0.370396 0.482006
vt 0.402331 0.484664
vt 0.407623 0.493176
vt 0.409552 0.479726
vt 0.416786 0.486681
vt 0.033556 0.452315
vt 0.023282 0.446017
vt 0.028922 0.438362
vt 0.036700 0.446239
vt 0.029165 0.460597
vt 0.018286 0.458092
vt 0.026272 0.467339
vt 0.016867 0.468265
vt 0.061832 0.489277
vt 0.062842 0.498507
vt 0.053638 0.499391
vt 0.054978 0.489898
vt 0.069108 0.485815
vt 0.073183 0.494329
vt 0.075682 0.479941
vt 0.083407 0.487294
vt 0.043775 0.498172
vt 0.047494 0.489330
vt 0.034805 0.494215
vt 0.041002 0.486113
vt 0.026378 0.487771
vt 0.034375 0.481779
vt 0.020239 0.479499
vt 0.029392 0.476093
vt 0.038025 0.432780
vt 0.041868 0.440492
vt 0.049290 0.430278
vt 0.051735 0.438593
vt 0.081555 0.466392
vt 0.090919 0.480726
vt 0.102046 0.466333
vt 0.102642 0.478307
vt 0.411380 0.441862
vt 0.418367 0.435326
vt 0.423947 0.442199
vt 0.414903 0.446977
vt 0.405136 0.438180
vt 0.410272 0.430342
vt 0.398973 0.435784
vt 0.401984 0.427862
vt 0.426752 0.448918
vt 0.416594 0.451925
vt 0.428201 0.458114
vt 0.417725 0.458637
vt 0.426126 0.470973
vt 0.415464 0.468148
vt 0.421960 0.479524
vt 0.412343 0.474408
vt 0.355262 0.490985
vt 0.354891 0.479107
vt 0.375814 0.430031
vt 0.378478 0.438135
vt 0.385384 0.427721
vt 0.385530 0.435905
vt 0.393303 0.427520
vt 0.391963 0.435542
vt 0.340495 0.488967
vt 0.341223 0.477311
vt 0.325644 0.486079
vt 0.326784 0.474576
vt 0.309735 0.484816
vt 0.311311 0.473412
vt 0.296887 0.482743
vt 0.298753 0.471397
vt 0.279322 0.481640
vt 0.281312 0.470359
vt 0.262236 0.479875
vt 0.264166 0.468654
vt 0.240512 0.478487
vt 0.242219 0.467340
vt 0.217889 0.477526
vt 0.219588 0.466429
vt 0.200411 0.476764
vt 0.202144 0.465664
vt 0.182384 0.476088
vt 0.184103 0.464978
vt 0.162286 0.475476
vt 0.163847 0.464258
vt 0.145199 0.475634
vt 0.146461 0.464642
vt 0.130509 0.476134
vt 0.131372 0.465081
vt 0.115965 0.476768
vt 0.116337 0.465274
vt 0.091523 0.453546
vt 0.076266 0.453369
vt 0.104064 0.452667
vt 0.117938 0.452433
vt 0.132813 0.451779
vt 0.146323 0.451990
vt 0.163548 0.451585
vt 0.182298 0.452266
vt 0.202354 0.452941
vt 0.222548 0.453688
vt 0.242825 0.454550
vt 0.263120 0.455715
vt 0.282161 0.457278
vt 0.299768 0.458078
vt 0.313580 0.459678
vt 0.328847 0.461170
vt 0.343042 0.463608
vt 0.355997 0.465512
vt 0.368524 0.469525
vt 0.389533 0.458818
vt 0.057494 0.464672
vt 0.085206 0.387640
vt 0.068196 0.389843
vt 0.099204 0.387509
vt 0.114174 0.387022
vt 0.130134 0.386903
vt 0.144746 0.386520
vt 0.163167 0.386870
vt 0.182774 0.386848
vt 0.203633 0.387492
vt 0.224368 0.388398
vt 0.244929 0.389405
vt 0.265226 0.390126
vt 0.283934 0.389935
vt 0.301263 0.389825
vt 0.314733 0.388810
vt 0.329168 0.387863
vt 0.342479 0.385965
vt 0.354894 0.383193
vt 0.366383 0.377274
vt 0.392262 0.382217
vt 0.044011 0.382114
vt 0.184839 0.363237
vt 0.204130 0.363738
vt 0.162810 0.363002
vt 0.143804 0.362684
vt 0.126964 0.362948
vt 0.109853 0.363404
vt 0.093583 0.363443
vt 0.078443 0.362864
vt 0.069485 0.354944
vt 0.057315 0.347342
vt 0.044904 0.343957
vt 0.034029 0.344354
vt 0.022969 0.348067
vt 0.013633 0.354826
vt 0.005741 0.364242
vt 0.000843 0.375017
vt 0.000000 0.388287
vt 0.005053 0.398693
vt 0.013033 0.410920
vt 0.386463 0.412820
vt 0.397838 0.414357
vt 0.406411 0.412091
vt 0.416214 0.411706
vt 0.424710 0.405999
vt 0.431094 0.396878
vt 0.433784 0.386901
vt 0.433556 0.378265
vt 0.430487 0.367962
vt 0.422595 0.355938
vt 0.414846 0.349301
vt 0.407147 0.343781
vt 0.395299 0.340934
vt 0.377741 0.344548
vt 0.362850 0.354255
vt 0.350566 0.360075
vt 0.339327 0.361558
vt 0.326633 0.363630
vt 0.312108 0.364263
vt 0.299913 0.365733
vt 0.283447 0.365883
vt 0.266976 0.366392
vt 0.245520 0.365627
vt 0.222451 0.364408
vn -0.066074 -0.862031 -0.502530
vn -0.066074 -0.862032 -0.502530
vn -0.096173 -0.859122 -0.502654
vn -0.096173 -0.859122 -0.502654
vn -0.076399 -0.861132 -0.502607
vn -0.076399 -0.861132 -0.502607
vn -0.150274 -0.851233 -0.502812
vn -0.150274 -0.851233 -0.502812
vn -0.274656 -0.818557 -0.504509
vn -0.274655 -0.818557 -0.504509
vn -0.402454 -0.764602 -0.503403
vn -0.402454 -0.764602 -0.503403
vn -0.541318 -0.672633 -0.504519
vn -0.541319 -0.672633 -0.504519
vn -0.661533 -0.554807 -0.504543
vn -0.661534 -0.554805 -0.504543
vn -0.783084 -0.359173 -0.507715
vn -0.783083 -0.359175 -0.507715
vn -0.854143 -0.125619 -0.504638
vn -0.853969 -0.126780 -0.504642
vn -0.865801 -0.005903 -0.500353
vn -0.865699 -0.008016 -0.500501
vn -0.846653 0.168015 -0.504926
vn -0.848403 0.159419 -0.504776
vn -0.732816 0.448343 -0.511829
vn -0.727491 0.456763 -0.511982
vn -0.426128 0.750889 -0.504560
vn -0.399025 0.765926 -0.504120
vn -0.171065 0.852128 -0.494586
vn -0.169474 0.852029 -0.495304
vn -0.012969 0.862379 -0.506098
vn -0.012972 0.862379 -0.506098
vn 0.218860 0.832515 -0.508938
vn 0.218860 0.832516 -0.508938
vn 0.458870 0.731538 -0.504273
vn 0.458870 0.731538 -0.504272
vn 0.640323 0.576984 -0.507027
vn 0.640324 0.576983 -0.507027
vn 0.795138 0.328914 -0.509482
vn 0.795139 0.328912 -0.509482
vn 0.859771 0.069909 -0.505871
vn 0.859771 0.069908 -0.505872
vn 0.831306 -0.220627 -0.510151
vn 0.831307 -0.220626 -0.510151
vn 0.715417 -0.481702 -0.506104
vn 0.715417 -0.481702 -0.506104
vn 0.500211 -0.699753 -0.510034
vn 0.500210 -0.699754 -0.510034
vn 0.221427 -0.832440 -0.507950
vn 0.221428 -0.832440 -0.507950
vn -0.033862 -0.862166 -0.505493
vn -0.033863 -0.862166 -0.505493
vn -0.135074 -0.853952 -0.502515
vn -0.135074 -0.853952 -0.502515
vn 0.852466 0.144178 -0.502508
vn 0.852466 0.144178 -0.502508
vn 0.815475 0.277051 -0.508176
vn 0.815475 0.277051 -0.508176
vn 0.670709 0.541257 -0.507139
vn 0.670710 0.541256 -0.507139
vn 0.525549 0.685435 -0.503961
vn 0.525548 0.685436 -0.503961
vn 0.390512 0.770356 -0.504035
vn 0.390511 0.770357 -0.504035
vn 0.243267 0.828679 -0.504096
vn 0.243268 0.828678 -0.504096
vn 0.136440 0.853501 -0.502912
vn 0.136440 0.853501 -0.502912
vn 0.076399 0.861132 -0.502607
vn 0.076399 0.861132 -0.502607
vn 0.066074 0.862031 -0.502530
vn 0.066074 0.862031 -0.502530
vn 0.096173 0.859122 -0.502654
vn 0.096172 0.859122 -0.502654
vn 0.150274 0.851233 -0.502812
vn 0.150274 0.851233 -0.502812
vn 0.274655 0.818557 -0.504508
vn 0.274655 0.818557 -0.504508
vn 0.402453 0.764602 -0.503403
vn 0.402454 0.764602 -0.503403
vn 0.541317 0.672633 -0.504521
vn 0.541317 0.672632 -0.504521
vn 0.661533 0.554806 -0.504544
vn 0.661533 0.554805 -0.504544
vn 0.783084 0.359174 -0.507714
vn 0.783083 0.359176 -0.507714
vn 0.855978 0.108280 -0.505546
vn 0.855978 0.108282 -0.505546
vn 0.864371 -0.032266 -0.501819
vn 0.864397 -0.030962 -0.501856
vn 0.856719 -0.130400 -0.499028
vn 0.857404 -0.125062 -0.499217
vn 0.791082 -0.343996 -0.505822
vn 0.796032 -0.332829 -0.505528
vn 0.482336 -0.704204 -0.521007
vn 0.458778 -0.720198 -0.520421
vn 0.083089 -0.868743 -0.488244
vn 0.070284 -0.869175 -0.489484
vn 0.004768 -0.867577 -0.497280
vn 0.005031 -0.867554 -0.497318
vn -0.019245 -0.872004 -0.489121
vn -0.013150 -0.871130 -0.490876
vn -0.395622 -0.759317 -0.516644
vn -0.371367 -0.771878 -0.516033
vn -0.717673 -0.479264 -0.505224
vn -0.729400 -0.461485 -0.504983
vn -0.843973 -0.196279 -0.499183
vn -0.846662 -0.183554 -0.499472
vn -0.864913 -0.018355 -0.501586
vn -0.864919 -0.015899 -0.501660
vn -0.831307 0.220629 -0.510149
vn -0.831307 0.220628 -0.510149
vn -0.715418 0.481702 -0.506103
vn -0.715418 0.481702 -0.506103
vn -0.500212 0.699752 -0.510034
vn -0.500211 0.699753 -0.510034
vn -0.221428 0.832439 -0.507951
vn -0.221428 0.832439 -0.507951
vn 0.033863 0.862166 -0.505494
vn 0.033865 0.862166 -0.505493
vn 0.135076 0.853952 -0.502514
vn 0.135076 0.853952 -0.502514
vn -0.852462 -0.144177 -0.502515
vn -0.852462 -0.144177 -0.502515
vn -0.815473 -0.277050 -0.508180
vn -0.815473 -0.277050 -0.508180
vn -0.670711 -0.541255 -0.507140
vn -0.670711 -0.541254 -0.507140
vn -0.525548 -0.685436 -0.503962
vn -0.525547 -0.685436 -0.503962
vn -0.390511 -0.770358 -0.504034
vn -0.390510 -0.770358 -0.504034
vn -0.243268 -0.828680 -0.504094
vn -0.243268 -0.828680 -0.504094
vn -0.136440 -0.853501 -0.502911
vn -0.136440 -0.853501 -0.502911
vn 0.864371 -0.032266 0.501819
vn 0.864397 -0.030962 0.501856
vn 0.857404 -0.125062 0.499218
vn 0.856718 -0.130400 0.499029
vn 0.855979 0.108280 0.505545
vn 0.855978 0.108282 0.505545
vn 0.783083 0.359175 0.507715
vn 0.783083 0.359176 0.507714
vn 0.661533 0.554806 0.504545
vn 0.661533 0.554805 0.504545
vn 0.541319 0.672631 0.504521
vn 0.541319 0.672631 0.504521
vn 0.402456 0.764602 0.503402
vn 0.402456 0.764601 0.503402
vn 0.274656 0.818557 0.504508
vn 0.274656 0.818557 0.504508
vn 0.150274 0.851233 0.502812
vn 0.150273 0.851233 0.502812
vn 0.096172 0.859122 0.502654
vn 0.096172 0.859122 0.502654
vn 0.066074 0.862031 0.502530
vn 0.066074 0.862031 0.502530
vn 0.076399 0.861133 0.502607
vn 0.076399 0.861133 0.502607
vn 0.136440 0.853501 0.502912
vn 0.136439 0.853501 0.502912
vn 0.243267 0.828679 0.504096
vn 0.243268 0.828678 0.504096
vn 0.390511 0.770357 0.504036
vn 0.390510 0.770357 0.504036
vn 0.525548 0.685436 0.503962
vn 0.525547 0.685436 0.503962
vn 0.670709 0.541257 0.507139
vn 0.670710 0.541256 0.507139
vn 0.815475 0.277051 0.508176
vn 0.815475 0.277051 0.508176
vn 0.852466 0.144178 0.502508
vn 0.852466 0.144178 0.502508
vn -0.135074 -0.853952 0.502515
vn -0.135074 -0.853952 0.502515
vn -0.033862 -0.862166 0.505494
vn -0.033864 -0.862166 0.505494
vn -0.848403 0.159419 0.504775
vn -0.846653 0.168015 0.504925
vn -0.865801 -0.005903 0.500353
vn -0.865699 -0.008016 0.500501
vn -0.727492 0.456762 0.511980
vn -0.732818 0.448342 0.511828
vn -0.399026 0.765926 0.504119
vn -0.426130 0.750889 0.504559
vn 0.005030 -0.867554 0.497318
vn 0.004768 -0.867577 0.497280
vn 0.083089 -0.868743 0.488244
vn 0.070284 -0.869175 0.489484
vn -0.013150 -0.871130 0.490876
vn -0.019245 -0.872004 0.489121
vn -0.371366 -0.771879 0.516034
vn -0.395621 -0.759318 0.516644
vn -0.500211 0.699752 0.510034
vn -0.500213 0.699751 0.510034
vn -0.715417 0.481703 0.506104
vn -0.715417 0.481702 0.506104
vn -0.221429 0.832439 0.507951
vn -0.221429 0.832439 0.507951
vn 0.033864 0.862166 0.505493
vn 0.033862 0.862166 0.505494
vn -0.831306 0.220629 0.510150
vn -0.831306 0.220629 0.510150
vn -0.864913 -0.018355 0.501586
vn -0.864919 -0.015899 0.501660
vn -0.843973 -0.196279 0.499183
vn -0.846662 -0.183554 0.499472
vn -0.717673 -0.479264 0.505224
vn -0.729400 -0.461486 0.504983
vn 0.482336 -0.704204 0.521007
vn 0.458778 -0.720198 0.520421
vn 0.791081 -0.343997 0.505823
vn 0.796031 -0.332830 0.505528
vn 0.135075 0.853953 0.502513
vn 0.135075 0.853953 0.502513
vn -0.852462 -0.144177 0.502516
vn -0.852462 -0.144177 0.502516
vn -0.815472 -0.277051 0.508182
vn -0.815471 -0.277052 0.508182
vn 0.795138 0.328914 0.509481
vn 0.795137 0.328916 0.509481
vn 0.640325 0.576984 0.507024
vn 0.640326 0.576983 0.507024
vn 0.859771 0.069908 0.505872
vn 0.859771 0.069909 0.505872
vn 0.831307 -0.220625 0.510151
vn 0.831306 -0.220626 0.510151
vn 0.458871 0.731538 0.504272
vn 0.458871 0.731538 0.504272
vn 0.218860 0.832515 0.508939
vn 0.218859 0.832515 0.508939
vn -0.012970 0.862378 0.506098
vn -0.012972 0.862378 0.506098
vn -0.171065 0.852128 0.494586
vn -0.169474 0.852029 0.495304
vn -0.854143 -0.125619 0.504638
vn -0.853969 -0.126780 0.504642
vn 0.221428 -0.832440 0.507950
vn 0.221428 -0.832440 0.507950
vn 0.500213 -0.699753 0.510033
vn 0.500212 -0.699754 0.510033
vn 0.715418 -0.481702 0.506104
vn 0.715418 -0.481702 0.506104
vn -0.783084 -0.359173 0.507715
vn -0.783083 -0.359175 0.507715
vn -0.661533 -0.554807 0.504543
vn -0.661534 -0.554805 0.504543
vn -0.541319 -0.672633 0.504518
vn -0.541320 -0.672632 0.504518
vn -0.402455 -0.764603 0.503401
vn -0.402456 -0.764602 0.503402
vn -0.274655 -0.818557 0.504508
vn -0.274655 -0.818557 0.504508
vn -0.150274 -0.851233 0.502812
vn -0.150273 -0.851233 0.502812
vn -0.096172 -0.859122 0.502654
vn -0.096172 -0.859122 0.502654
vn -0.066073 -0.862031 0.502530
vn -0.066073 -0.862032 0.502530
vn -0.076398 -0.861133 0.502607
vn -0.076398 -0.861133 0.502607
vn -0.136440 -0.853501 0.502911
vn -0.136440 -0.853501 0.502911
vn -0.243267 -0.828680 0.504095
vn -0.243267 -0.828679 0.504095
vn -0.390510 -0.770358 0.504034
vn -0.390509 -0.770358 0.504034
vn -0.525547 -0.685436 0.503963
vn -0.525546 -0.685436 0.503963
vn -0.670709 -0.541255 0.507141
vn -0.670710 -0.541254 0.507141
vn 0.193405 0.019618 0.980923
vn 0.207919 -0.175210 0.962326
vn 0.121542 -0.026532 0.992232
vn 0.192670 0.024211 0.980965
vn 0.176854 0.076409 0.981267
vn 0.175404 0.079866 0.981252
vn 0.150036 0.124653 0.980791
vn 0.149608 0.125192 0.980788
vn 0.121634 0.152379 0.980809
vn 0.121337 0.152592 0.980812
vn 0.089453 0.173230 0.980811
vn 0.091030 0.172331 0.980824
vn 0.059155 0.186502 0.980672
vn 0.062120 0.185405 0.980697
vn 0.032344 0.195369 0.980196
vn 0.035092 0.194642 0.980247
vn 0.020659 0.196487 0.980289
vn 0.021495 0.196554 0.980257
vn 0.015074 0.196197 0.980449
vn 0.015002 0.196207 0.980448
vn 0.019344 0.197186 0.980175
vn 0.018452 0.197039 0.980222
vn 0.033831 0.195290 0.980162
vn 0.030653 0.196116 0.980102
vn 0.058993 0.186965 0.980594
vn 0.055621 0.188173 0.980560
vn 0.090025 0.172867 0.980822
vn 0.087936 0.174059 0.980801
vn 0.119761 0.153955 0.980793
vn 0.119827 0.153909 0.980792
vn 0.150267 0.123677 0.980879
vn 0.151271 0.122404 0.980884
vn 0.179613 0.070285 0.981223
vn 0.182131 0.063531 0.981220
vn 0.191694 0.036292 0.980784
vn 0.130121 -0.012990 0.991413
vn 0.181824 -0.027936 0.982934
vn 0.000000 0.000000 1.000000
vn 0.007117 0.005375 0.999960
vn 0.000000 0.000000 1.000000
vn 0.000003 0.000000 1.000000
vn -0.009156 -0.003098 0.999953
vn 0.000002 0.000000 1.000000
vn -0.000002 0.000000 1.000000
vn 0.000000 0.000000 1.000000
vn 0.000001 0.000000 1.000000
vn 0.000000 0.000000 1.000000
vn -0.000001 0.000000 1.000000
vn 0.000000 0.000000 1.000000
vn 0.000000 0.000000 1.000000
vn 0.000000 0.000000 1.000000
vn -0.000001 0.000000 1.000000
vn -0.000001 0.000000 1.000000
vn -0.000001 0.000000 1.000000
vn 0.000000 0.000000 1.000000
vn -0.000001 0.000000 1.000000
vn -0.136989 0.012565 0.990493
vn 0.000001 0.000000 1.000000
vn 0.000000 0.000000 1.000000
vn 0.000000 0.000000 1.000000
vn 0.000000 0.000000 1.000000
vn 0.000003 0.000000 1.000000
vn 0.000004 0.000000 1.000000
vn -0.000003 0.000000 1.000000
vn -0.000002 0.000000 1.000000
vn -0.103609 0.036092 0.993963
vn 0.000001 0.000000 1.000000
vn 0.000003 0.000000 1.000000
vn -0.000002 0.000000 1.000000
vn -0.000001 0.000000 1.000000
vn 0.000002 0.000000 1.000000
vn -0.185328 0.125222 0.974666
vn -0.198218 -0.032253 0.979627
vn -0.197023 -0.034204 0.979802
vn -0.175404 -0.079866 0.981252
vn -0.176854 -0.076409 0.981267
vn -0.149608 -0.125191 0.980788
vn -0.150035 -0.124653 0.980791
vn -0.121337 -0.152592 0.980813
vn -0.121634 -0.152379 0.980809
vn -0.091029 -0.172331 0.980824
vn -0.089452 -0.173230 0.980811
vn -0.062120 -0.185405 0.980697
vn -0.059155 -0.186502 0.980672
vn -0.035093 -0.194641 0.980247
vn -0.032345 -0.195369 0.980196
vn -0.021496 -0.196554 0.980257
vn -0.020659 -0.196487 0.980289
vn -0.015002 -0.196206 0.980448
vn -0.015075 -0.196197 0.980449
vn -0.018452 -0.197039 0.980222
vn -0.019345 -0.197186 0.980175
vn -0.030653 -0.196116 0.980102
vn -0.033831 -0.195290 0.980162
vn -0.055623 -0.188173 0.980560
vn -0.058995 -0.186965 0.980594
vn -0.087938 -0.174059 0.980801
vn -0.090026 -0.172867 0.980822
vn -0.119827 -0.153909 0.980792
vn -0.119761 -0.153955 0.980793
vn -0.151271 -0.122404 0.980885
vn -0.150267 -0.123677 0.980879
vn -0.182130 -0.063532 0.981220
vn -0.179612 -0.070286 0.981223
vn -0.196061 -0.031822 0.980075
vn -0.198367 0.047658 0.978969
vn 0.193405 0.019618 -0.980923
vn 0.192669 0.024211 -0.980965
vn 0.121544 -0.026532 -0.992231
vn 0.207923 -0.175210 -0.962325
vn 0.176853 0.076409 -0.981267
vn 0.175403 0.079866 -0.981252
vn 0.150037 0.124653 -0.980791
vn 0.149609 0.125192 -0.980788
vn 0.121636 0.152379 -0.980808
vn 0.121339 0.152592 -0.980812
vn 0.089454 0.173230 -0.980811
vn 0.091031 0.172331 -0.980824
vn 0.059155 0.186502 -0.980672
vn 0.062120 0.185405 -0.980697
vn 0.032344 0.195369 -0.980196
vn 0.035092 0.194641 -0.980247
vn 0.020659 0.196487 -0.980289
vn 0.021495 0.196554 -0.980257
vn 0.015075 0.196197 -0.980449
vn 0.015002 0.196207 -0.980448
vn 0.019344 0.197186 -0.980175
vn 0.018452 0.197039 -0.980222
vn 0.033831 0.195290 -0.980162
vn 0.030652 0.196116 -0.980102
vn 0.058994 0.186965 -0.980594
vn 0.055623 0.188173 -0.980560
vn 0.090026 0.172867 -0.980822
vn 0.087937 0.174059 -0.980801
vn 0.119761 0.153955 -0.980793
vn 0.119827 0.153909 -0.980792
vn 0.150268 0.123677 -0.980879
vn 0.151272 0.122404 -0.980884
vn 0.179615 0.070285 -0.981223
vn 0.182133 0.063531 -0.981219
vn 0.191696 0.036292 -0.980783
vn 0.130123 -0.012990 -0.991413
vn 0.181825 -0.027936 -0.982934
vn 0.000001 0.000000 -1.000000
vn 0.000001 0.000000 -1.000000
vn 0.007116 0.005375 -0.999960
vn -0.000000 0.000000 -1.000000
vn 0.000001 0.000000 -1.000000
vn -0.009157 -0.003098 -0.999953
vn -0.000001 0.000000 -1.000000
vn 0.000001 0.000000 -1.000000
vn 0.000000 0.000000 -1.000000
vn 0.000000 0.000000 -1.000000
vn 0.000000 0.000000 -1.000000
vn -0.000001 0.000000 -1.000000
vn -0.000001 0.000000 -1.000000
vn 0.000000 0.000000 -1.000000
vn -0.000002 0.000000 -1.000000
vn 0.000000 0.000000 -1.000000
vn 0.000000 0.000000 -1.000000
vn 0.000000 0.000000 -1.000000
vn -0.000002 0.000000 -1.000000
vn -0.136990 0.012565 -0.990493
vn -0.000000 0.000000 -1.000000
vn 0.000000 0.000000 -1.000000
vn 0.000000 0.000000 -1.000000
vn 0.000000 0.000000 -1.000000
vn -0.000002 0.000000 -1.000000
vn -0.000002 0.000000 -1.000000
vn 0.000000 0.000000 -1.000000
vn 0.000000 0.000000 -1.000000
vn -0.103611 0.036092 -0.993963
vn 0.000000 0.000000 -1.000000
vn 0.000003 0.000000 -1.000000
vn 0.000002 0.000000 -1.000000
vn 0.000001 0.000000 -1.000000
vn 0.000001 0.000000 -1.000000
vn -0.185332 0.125222 -0.974665
vn -0.198222 -0.032253 -0.979626
vn -0.197027 -0.034204 -0.979801
vn -0.176855 -0.076409 -0.981266
vn -0.175405 -0.079866 -0.981251
vn -0.150035 -0.124653 -0.980791
vn -0.149608 -0.125191 -0.980788
vn -0.121636 -0.152379 -0.980809
vn -0.121338 -0.152592 -0.980812
vn -0.089453 -0.173230 -0.980811
vn -0.091031 -0.172331 -0.980824
vn -0.062119 -0.185405 -0.980697
vn -0.059154 -0.186502 -0.980672
vn -0.035091 -0.194642 -0.980247
vn -0.032343 -0.195369 -0.980196
vn -0.021495 -0.196554 -0.980257
vn -0.020658 -0.196487 -0.980289
vn -0.015075 -0.196197 -0.980449
vn -0.015002 -0.196206 -0.980448
vn -0.018452 -0.197039 -0.980222
vn -0.019344 -0.197186 -0.980175
vn -0.030651 -0.196116 -0.980102
vn -0.033830 -0.195290 -0.980162
vn -0.055622 -0.188173 -0.980560
vn -0.058994 -0.186965 -0.980594
vn -0.087938 -0.174059 -0.980801
vn -0.090027 -0.172867 -0.980822
vn -0.119828 -0.153909 -0.980792
vn -0.119762 -0.153955 -0.980793
vn -0.151271 -0.122404 -0.980885
vn -0.150267 -0.123677 -0.980879
vn -0.182130 -0.063532 -0.981220
vn -0.179612 -0.070286 -0.981223
vn -0.196061 -0.031822 -0.980075
vn -0.198368 0.047658 -0.978968
vn 0.999276 -0.038056 0.000000
vn 0.991977 0.126418 0.000000
vn 0.991977 0.126418 0.000000
vn 0.999276 -0.038056 0.000000
vn 0.909139 0.416493 0.000000
vn 0.909139 0.416493 0.000000
vn 0.766558 0.642176 0.000000
vn 0.766558 0.642176 0.000000
vn 0.626936 0.779071 0.000000
vn 0.626936 0.779071 0.000000
vn 0.465996 0.884787 0.000000
vn 0.465996 0.884787 0.000000
vn 0.318259 0.948004 0.000000
vn 0.318259 0.948004 0.000000
vn 0.174092 0.984729 0.000000
vn 0.174092 0.984729 0.000000
vn 0.111297 0.993787 0.000000
vn 0.111297 0.993787 0.000000
vn 0.076453 0.997073 0.000000
vn 0.076453 0.997073 0.000000
vn 0.088273 0.996096 0.000000
vn 0.088273 0.996096 0.000000
vn 0.157637 0.987497 0.000000
vn 0.157637 0.987497 0.000000
vn 0.281113 0.959675 0.000000
vn 0.281113 0.959675 0.000000
vn 0.451926 0.892056 0.000000
vn 0.451926 0.892056 0.000000
vn 0.607906 0.794009 0.000000
vn 0.607906 0.794009 0.000000
vn 0.776814 0.629731 0.000000
vn 0.776814 0.629731 0.000000
vn 0.937972 0.346710 -0.000000
vn 0.937972 0.346710 -0.000000
vn 0.985998 0.166755 -0.000000
vn 0.985998 0.166755 -0.000000
vn -0.849950 0.526863 0.000000
vn -0.981169 0.193151 0.000000
vn -0.981169 0.193151 0.000000
vn -0.849950 0.526863 0.000000
vn -0.036155 -0.999346 0.000000
vn 0.007420 -0.999972 0.000000
vn 0.007420 -0.999972 0.000000
vn -0.036155 -0.999346 0.000000
vn -0.259121 0.965845 0.000000
vn -0.581887 0.813269 0.000000
vn -0.581887 0.813269 0.000000
vn -0.259121 0.965845 0.000000
vn -0.829150 0.559026 0.000000
vn -0.829150 0.559026 0.000000
vn -0.966488 0.256711 0.000000
vn -0.966488 0.256711 0.000000
vn -0.999698 -0.024558 0.000000
vn -0.999698 -0.024558 0.000000
vn -0.971924 -0.235295 0.000000
vn -0.971924 -0.235295 0.000000
vn -0.832339 -0.554266 0.000000
vn -0.832339 -0.554266 0.000000
vn -0.453684 -0.891163 0.000000
vn -0.453684 -0.891163 0.000000
vn 0.108292 -0.994119 0.000000
vn 0.108292 -0.994119 0.000000
vn 0.557571 -0.830130 0.000000
vn 0.557571 -0.830130 0.000000
vn 0.916558 -0.399902 0.000000
vn 0.916558 -0.399902 0.000000
vn 0.988260 -0.152783 0.000000
vn 0.988260 -0.152783 0.000000
vn 0.156250 0.987718 0.000000
vn 0.010631 0.999943 0.000000
vn 0.010631 0.999943 0.000000
vn 0.156250 0.987718 0.000000
vn 0.996773 0.080270 0.000000
vn 0.923591 0.383379 0.000001
vn 0.923591 0.383379 0.000001
vn 0.996773 0.080270 0.000000
vn 0.743597 0.668628 0.000002
vn 0.743597 0.668628 0.000002
vn 0.531764 0.846892 0.000001
vn 0.531764 0.846892 0.000001
vn 0.255398 0.966836 0.000000
vn 0.255398 0.966836 0.000000
vn -0.016136 0.999870 0.000000
vn -0.016136 0.999870 0.000000
vn -0.209154 0.977883 0.000000
vn -0.209154 0.977883 0.000000
vn -0.493152 0.869943 0.000000
vn -0.493152 0.869943 0.000000
vn -0.999986 -0.005213 0.000000
vn -0.999986 -0.005213 0.000000
vn -0.156249 -0.987718 0.000001
vn -0.010631 -0.999944 0.000000
vn -0.010631 -0.999944 0.000000
vn -0.156249 -0.987718 0.000001
vn 0.259119 -0.965845 0.000000
vn 0.259119 -0.965845 0.000000
vn 0.581887 -0.813269 0.000000
vn 0.581887 -0.813269 0.000000
vn 0.829150 -0.559026 0.000000
vn 0.829150 -0.559026 0.000000
vn 0.966488 -0.256711 0.000000
vn 0.966488 -0.256711 0.000000
vn -0.989238 -0.146316 0.000000
vn -0.989238 -0.146316 0.000000
vn -0.909139 -0.416493 0.000000
vn -0.909139 -0.416493 0.000000
vn -0.766556 -0.642177 0.000000
vn -0.766556 -0.642177 0.000000
vn -0.626935 -0.779072 0.000000
vn -0.626935 -0.779072 0.000000
vn -0.465997 -0.884787 0.000000
vn -0.465997 -0.884787 0.000000
vn -0.318260 -0.948004 0.000000
vn -0.318260 -0.948004 0.000000
vn -0.174092 -0.984730 0.000000
vn -0.174092 -0.984730 0.000000
vn -0.111298 -0.993787 0.000000
vn -0.111298 -0.993787 0.000000
vn -0.076453 -0.997073 0.000000
vn -0.076453 -0.997073 0.000000
vn -0.088274 -0.996096 0.000000
vn -0.088274 -0.996096 0.000000
vn -0.157638 -0.987497 0.000000
vn -0.157638 -0.987497 0.000000
vn -0.281113 -0.959675 0.000000
vn -0.281113 -0.959675 0.000000
vn -0.451926 -0.892056 0.000000
vn -0.451926 -0.892056 0.000000
vn -0.607905 -0.794010 -0.000001
vn -0.607905 -0.794010 -0.000001
vn -0.776816 -0.629728 -0.000002
vn -0.776816 -0.629728 -0.000002
vn -0.937973 -0.346708 -0.000001
vn -0.937973 -0.346708 -0.000001
vn -0.985998 -0.166755 0.000000
vn -0.985998 -0.166755 0.000000
s 1
g polySurface3
usemtl unwrapChekcerShaderSG
f 43/1/1 44/349/2 46/348/3 45/4/4
f 44/349/2 43/1/1 173/5/5 174/308/6
f 45/4/4 46/348/3 48/347/7 47/8/8
f 47/8/8 48/347/7 50/346/9 49/10/10
f 49/10/10 50/346/9 52/345/11 51/12/12
f 51/12/12 52/345/11 54/344/13 53/14/14
f 53/14/14 54/344/13 56/343/15 55/16/16
f 55/16/16 56/343/15 58/342/17 57/18/18
f 57/18/18 58/342/17 60/341/19 59/20/20
f 59/20/20 60/341/19 62/340/21 61/22/22
f 61/22/22 62/340/21 64/339/23 63/24/24
f 63/24/24 64/339/23 66/338/25 65/26/26
f 65/26/26 66/338/25 68/337/27 67/28/28
f 67/28/28 68/337/27 70/336/29 69/30/30
f 69/30/30 70/336/29 72/335/31 71/32/32
f 71/32/32 72/335/31 74/334/33 73/34/34
f 73/34/34 74/334/33 76/333/35 75/36/36
f 75/36/36 76/333/35 78/332/37 77/38/38
f 77/38/38 78/332/37 80/331/39 79/40/40
f 79/40/40 80/331/39 82/330/41 81/42/42
f 81/42/42 82/330/41 84/329/43 83/44/44
f 83/44/44 84/329/43 86/328/45 85/46/46
f 85/46/46 86/328/45 88/327/47 87/48/48
f 87/48/48 88/327/47 90/326/49 89/50/50
f 89/50/50 90/326/49 92/51/51 91/52/52
f 91/52/52 92/51/51 94/53/53 93/54/54
s 2
f 93/54/55 94/53/56 96/55/57 95/56/58
f 95/56/58 96/55/57 98/57/59 97/58/60
f 97/58/60 98/57/59 100/59/61 99/60/62
f 99/60/62 100/59/61 102/61/63 101/62/64
f 101/62/64 102/61/63 104/63/65 103/64/66
f 103/64/66 104/63/65 106/65/67 105/66/68
f 105/66/68 106/65/67 108/67/69 107/68/70
f 107/68/70 108/67/69 110/69/71 109/70/72
f 109/70/72 110/69/71 112/71/73 111/72/74
f 111/72/74 112/71/73 114/73/75 113/74/76
f 113/74/76 114/73/75 116/75/77 115/76/78
f 115/76/78 116/75/77 118/77/79 117/78/80
f 117/78/80 118/77/79 120/79/81 119/80/82
f 119/80/82 120/79/81 122/81/83 121/82/84
f 121/82/84 122/81/83 124/83/85 123/84/86
f 123/84/86 124/83/85 126/85/87 125/86/88
f 125/86/88 126/85/87 128/87/89 127/88/90
f 127/88/90 128/87/89 130/89/91 129/90/92
f 129/90/92 130/89/91 132/91/93 131/92/94
f 131/92/94 132/91/93 134/93/95 133/94/96
f 133/94/96 134/93/95 136/95/97 135/96/98
f 135/96/98 136/95/97 138/325/99 137/98/100
f 137/98/100 138/325/99 140/324/101 139/100/102
f 139/100/102 140/324/101 142/323/103 141/102/104
f 141/102/104 142/323/103 144/322/105 143/104/106
f 143/104/106 144/322/105 146/321/107 145/106/108
f 145/106/108 146/321/107 148/320/109 147/108/110
f 147/108/110 148/320/109 150/319/111 149/110/112
f 149/110/112 150/319/111 152/318/113 151/112/114
f 151/112/114 152/318/113 154/317/115 153/114/116
f 153/114/116 154/317/115 156/316/117 155/116/118
f 155/116/118 156/316/117 158/315/119 157/118/120
f 157/118/120 158/315/119 160/314/121 159/120/122
s 1
f 159/120/123 160/314/124 162/313/125 161/122/126
f 161/122/126 162/313/125 164/312/127 163/124/128
f 163/124/128 164/312/127 166/311/129 165/126/130
f 165/126/130 166/311/129 168/310/131 167/128/132
f 167/128/132 168/310/131 170/309/133 169/130/134
f 169/130/134 170/309/133 172/307/135 171/132/136
f 171/132/136 172/307/135 174/308/6 173/5/5
s 4
f 175/133/137 176/134/138 241/135/139 242/136/140
f 176/134/138 175/133/137 178/137/141 177/138/142
f 177/138/142 178/137/141 180/139/143 179/140/144
f 179/140/144 180/139/143 182/141/145 181/142/146
f 181/142/146 182/141/145 184/143/147 183/144/148
f 183/144/148 184/143/147 186/145/149 185/146/150
f 185/146/150 186/145/149 188/147/151 187/148/152
f 187/148/152 188/147/151 190/149/153 189/150/154
f 189/150/154 190/149/153 192/151/155 191/152/156
f 191/152/156 192/151/155 194/153/157 193/154/158
f 193/154/158 194/153/157 196/155/159 195/156/160
f 195/156/160 196/155/159 198/157/161 197/158/162
f 197/158/162 198/157/161 200/159/163 199/160/164
f 199/160/164 200/159/163 202/161/165 201/162/166
f 201/162/166 202/161/165 204/163/167 203/164/168
f 203/164/168 204/163/167 206/165/169 205/166/170
f 205/166/170 206/165/169 208/167/171 207/168/172
f 207/168/172 208/167/171 210/169/173 209/170/174
s 5
f 209/170/175 210/169/176 266/171/177 265/172/178
f 211/173/179 212/174/180 264/175/181 263/176/182
f 212/174/180 211/173/179 214/177/183 213/178/184
f 213/178/184 214/177/183 261/179/185 262/180/186
s 4
f 215/181/187 216/182/188 236/183/189 235/184/190
f 216/182/188 215/181/187 218/185/191 217/186/192
f 217/186/192 218/185/191 233/187/193 234/188/194
f 219/189/195 220/190/196 224/191/197 223/192/198
f 220/190/196 219/189/195 222/193/199 221/194/200
f 221/194/200 222/193/199 243/195/201 244/196/202
f 223/192/198 224/191/197 226/197/203 225/198/204
f 225/198/204 226/197/203 228/199/205 227/200/206
f 227/200/206 228/199/205 230/201/207 229/202/208
f 229/202/208 230/201/207 232/203/209 231/204/210
f 231/204/210 232/203/209 234/188/194 233/187/193
f 235/184/190 236/183/189 238/205/211 237/206/212
f 237/206/212 238/205/211 240/207/213 239/208/214
f 239/208/214 240/207/213 242/136/140 241/135/139
f 244/196/202 243/195/201 246/209/215 245/210/216
s 5
f 245/210/217 246/209/218 305/211/219 306/212/220
f 247/213/221 248/214/222 252/215/223 251/216/224
f 248/214/222 247/213/221 250/217/225 249/218/226
f 249/218/226 250/217/225 273/219/227 274/220/228
f 251/216/224 252/215/223 254/221/229 253/222/230
f 253/222/230 254/221/229 256/223/231 255/224/232
f 255/224/232 256/223/231 258/225/233 257/226/234
f 257/226/234 258/225/233 260/227/235 259/228/236
f 259/228/236 260/227/235 262/180/186 261/179/185
f 263/176/182 264/175/181 276/229/237 275/230/238
f 265/172/178 266/171/177 268/231/239 267/232/240
f 267/232/240 268/231/239 270/233/241 269/234/242
f 269/234/242 270/233/241 272/235/243 271/236/244
f 271/236/244 272/235/243 274/220/228 273/219/227
f 275/230/238 276/229/237 278/237/245 277/238/246
f 277/238/246 278/237/245 280/239/247 279/240/248
f 279/240/248 280/239/247 282/241/249 281/242/250
f 281/242/250 282/241/249 284/243/251 283/244/252
f 283/244/252 284/243/251 286/245/253 285/246/254
f 285/246/254 286/245/253 288/247/255 287/248/256
f 287/248/256 288/247/255 290/249/257 289/250/258
f 289/250/258 290/249/257 292/251/259 291/252/260
f 291/252/260 292/251/259 294/253/261 293/254/262
f 293/254/262 294/253/261 296/255/263 295/256/264
f 295/256/264 296/255/263 298/257/265 297/258/266
f 297/258/266 298/257/265 300/259/267 299/260/268
f 299/260/268 300/259/267 302/261/269 301/262/270
f 301/262/270 302/261/269 304/263/271 303/264/272
f 303/264/272 304/263/271 306/212/220 305/211/219
s 11
f 22/265/273 23/266/274 176/134/275 177/138/276
f 24/267/277 22/265/273 177/138/276 179/140/278
f 25/268/279 24/267/277 179/140/278 181/142/280
f 26/269/281 25/268/279 181/142/280 183/144/282
f 27/270/283 26/269/281 183/144/282 185/146/284
f 28/271/285 27/270/283 185/146/284 187/148/286
f 29/272/287 28/271/285 187/148/286 189/150/288
f 30/273/289 29/272/287 189/150/288 191/152/290
f 31/274/291 30/273/289 191/152/290 193/154/292
f 32/275/293 31/274/291 193/154/292 195/156/294
f 33/276/295 32/275/293 195/156/294 197/158/296
f 34/277/297 33/276/295 197/158/296 199/160/298
f 35/278/299 34/277/297 199/160/298 201/162/300
f 36/279/301 35/278/299 201/162/300 203/164/302
f 37/280/303 36/279/301 203/164/302 205/166/304
f 38/281/305 37/280/303 205/166/304 207/168/306
f 39/282/307 38/281/305 207/168/306 209/170/308
f 209/170/308 40/283/309 39/282/307
f 211/173/310 41/284/311 214/177/312
f 215/181/313 42/285/314 218/185/315
f 222/193/316 219/189/317 42/285/314
f 42/285/314 219/189/317 223/192/318
f 42/285/314 223/192/318 225/198/319
f 42/285/314 225/198/319 227/200/320
f 42/285/314 227/200/320 229/202/321
f 42/285/314 229/202/321 231/204/322
f 42/285/314 231/204/322 233/187/323
f 42/285/314 233/187/323 218/185/315
f 235/184/324 42/285/314 215/181/313
f 237/206/325 42/285/314 235/184/324
f 239/208/326 42/285/314 237/206/325
f 241/135/327 42/285/314 239/208/326
f 176/134/275 42/285/314 241/135/327
f 23/266/274 42/285/314 176/134/275
f 243/195/328 42/285/314 246/209/329
f 222/193/316 42/285/314 243/195/328
f 250/217/330 247/213/331 41/284/311
f 41/284/311 247/213/331 251/216/332
f 41/284/311 251/216/332 253/222/333
f 41/284/311 253/222/333 255/224/334
f 41/284/311 255/224/334 257/226/335
f 41/284/311 257/226/335 259/228/336
f 41/284/311 259/228/336 261/179/337
f 41/284/311 261/179/337 214/177/312
f 263/176/338 41/284/311 211/173/310
f 209/170/308 41/284/311 40/283/309
f 265/172/339 41/284/311 209/170/308
f 267/232/340 41/284/311 265/172/339
f 269/234/341 41/284/311 267/232/340
f 271/236/342 41/284/311 269/234/341
f 273/219/343 41/284/311 271/236/342
f 250/217/330 41/284/311 273/219/343
f 40/283/344 41/284/311 263/176/338
f 39/282/345 40/283/344 263/176/338 275/230/346
f 275/230/346 277/238/347 38/281/348 39/282/345
f 277/238/347 279/240/349 37/280/350 38/281/348
f 279/240/349 281/242/351 36/279/352 37/280/350
f 281/242/351 283/244/353 35/278/354 36/279/352
f 285/246/355 34/277/356 35/278/354 283/244/353
f 287/248/357 33/276/358 34/277/356 285/246/355
f 289/250/359 32/275/360 33/276/358 287/248/357
f 289/250/359 291/252/361 31/274/362 32/275/360
f 293/254/363 30/273/364 31/274/362 291/252/361
f 295/256/365 29/272/366 30/273/364 293/254/363
f 297/258/367 28/271/368 29/272/366 295/256/365
f 299/260/369 27/270/370 28/271/368 297/258/367
f 301/262/371 26/269/372 27/270/370 299/260/369
f 303/264/373 25/268/374 26/269/372 301/262/371
f 305/211/375 24/267/376 25/268/374 303/264/373
f 305/211/375 246/209/329 22/265/377 24/267/376
f 246/209/329 23/266/378 22/265/377
f 246/209/329 42/285/314 23/266/378
s 16
f 20/286/379 125/86/380 127/88/381 21/287/382
f 19/288/383 123/84/384 125/86/380 20/286/379
f 18/289/385 121/82/386 123/84/384 19/288/383
f 17/290/387 119/80/388 121/82/386 18/289/385
f 16/291/389 117/78/390 119/80/388 17/290/387
f 15/292/391 115/76/392 117/78/390 16/291/389
f 14/293/393 113/74/394 115/76/392 15/292/391
f 13/294/395 111/72/396 113/74/394 14/293/393
f 12/295/397 109/70/398 111/72/396 13/294/395
f 11/296/399 107/68/400 109/70/398 12/295/397
f 10/297/401 105/66/402 107/68/400 11/296/399
f 9/298/403 103/64/404 105/66/402 10/297/401
f 8/299/405 101/62/406 103/64/404 9/298/403
f 7/300/407 99/60/408 101/62/406 8/299/405
f 6/301/409 97/58/410 99/60/408 7/300/407
f 5/302/411 95/56/412 97/58/410 6/301/409
f 4/303/413 93/54/414 95/56/412 5/302/411
f 93/54/414 4/303/413 3/304/415
f 63/24/416 65/26/417 2/305/418
f 137/98/419 139/100/420 1/306/421
f 155/116/422 1/306/421 153/114/423
f 1/306/421 151/112/424 153/114/423
f 1/306/421 149/110/425 151/112/424
f 1/306/421 147/108/426 149/110/425
f 1/306/421 145/106/427 147/108/426
f 1/306/421 143/104/428 145/106/427
f 1/306/421 141/102/429 143/104/428
f 1/306/421 139/100/420 141/102/429
f 135/96/430 137/98/419 1/306/421
f 133/94/431 135/96/430 1/306/421
f 131/92/432 133/94/431 1/306/421
f 129/90/433 131/92/432 1/306/421
f 127/88/381 129/90/433 1/306/421
f 21/287/382 127/88/381 1/306/421
f 157/118/434 159/120/435 1/306/421
f 155/116/422 157/118/434 1/306/421
f 81/42/436 2/305/418 79/40/437
f 2/305/418 77/38/438 79/40/437
f 2/305/418 75/36/439 77/38/438
f 2/305/418 73/34/440 75/36/439
f 2/305/418 71/32/441 73/34/440
f 2/305/418 69/30/442 71/32/441
f 2/305/418 67/28/443 69/30/442
f 2/305/418 65/26/417 67/28/443
f 61/22/444 63/24/416 2/305/418
f 93/54/414 3/304/415 2/305/418
f 91/52/445 93/54/414 2/305/418
f 89/50/446 91/52/445 2/305/418
f 87/48/447 89/50/446 2/305/418
f 85/46/448 87/48/447 2/305/418
f 83/44/449 85/46/448 2/305/418
f 81/42/436 83/44/449 2/305/418
f 3/304/450 61/22/444 2/305/418
f 4/303/451 59/20/452 61/22/444 3/304/450
f 59/20/452 4/303/451 5/302/453 57/18/454
f 57/18/454 5/302/453 6/301/455 55/16/456
f 55/16/456 6/301/455 7/300/457 53/14/458
f 53/14/458 7/300/457 8/299/459 51/12/460
f 49/10/461 51/12/460 8/299/459 9/298/462
f 47/8/463 49/10/461 9/298/462 10/297/464
f 45/4/465 47/8/463 10/297/464 11/296/466
f 45/4/465 11/296/466 12/295/467 43/1/468
f 173/5/469 43/1/468 12/295/467 13/294/470
f 171/132/471 173/5/469 13/294/470 14/293/472
f 169/130/473 171/132/471 14/293/472 15/292/474
f 167/128/475 169/130/473 15/292/474 16/291/476
f 165/126/477 167/128/475 16/291/476 17/290/478
f 163/124/479 165/126/477 17/290/478 18/289/480
f 161/122/481 163/124/479 18/289/480 19/288/482
f 161/122/481 19/288/482 20/286/483 159/120/435
f 159/120/435 20/286/483 21/287/484
f 159/120/435 21/287/484 1/306/421
s 22
f 128/87/485 126/85/486 178/137/487 175/133/488
f 126/85/486 124/83/489 180/139/490 178/137/487
f 124/83/489 122/81/491 182/141/492 180/139/490
f 122/81/491 120/79/493 184/143/494 182/141/492
f 120/79/493 118/77/495 186/145/496 184/143/494
f 118/77/495 116/75/497 188/147/498 186/145/496
f 116/75/497 114/73/499 190/149/500 188/147/498
f 114/73/499 112/71/501 192/151/502 190/149/500
f 112/71/501 110/69/503 194/153/504 192/151/502
f 110/69/503 108/67/505 196/155/506 194/153/504
f 108/67/505 106/65/507 198/157/508 196/155/506
f 106/65/507 104/63/509 200/159/510 198/157/508
f 104/63/509 102/61/511 202/161/512 200/159/510
f 102/61/511 100/59/513 204/163/514 202/161/512
f 100/59/513 98/57/515 206/165/516 204/163/514
f 98/57/515 96/55/517 208/167/518 206/165/516
f 96/55/517 94/53/519 210/169/520 208/167/518
s 23
f 66/25/521 64/23/522 212/174/523 213/178/524
s 22
f 140/99/525 138/97/526 216/182/527 217/186/528
f 156/115/529 154/113/530 220/190/531 221/194/532
f 154/113/530 152/111/533 224/191/534 220/190/531
f 152/111/533 150/109/535 226/197/536 224/191/534
f 150/109/535 148/107/537 228/199/538 226/197/536
f 148/107/537 146/105/539 230/201/540 228/199/538
f 146/105/539 144/103/541 232/203/542 230/201/540
f 144/103/541 142/101/543 234/188/544 232/203/542
f 142/101/543 140/99/525 217/186/528 234/188/544
f 138/97/526 136/95/545 236/183/546 216/182/527
f 136/95/545 134/93/547 238/205/548 236/183/546
f 134/93/547 132/91/549 240/207/550 238/205/548
f 132/91/549 130/89/551 242/136/552 240/207/550
f 130/89/551 128/87/485 175/133/488 242/136/552
f 160/119/553 158/117/554 244/196/555 245/210/556
f 158/117/554 156/115/529 221/194/532 244/196/555
s 23
f 82/41/557 80/39/558 248/214/559 249/218/560
f 80/39/558 78/37/561 252/215/562 248/214/559
f 78/37/561 76/35/563 254/221/564 252/215/562
f 76/35/563 74/33/565 256/223/566 254/221/564
f 74/33/565 72/31/567 258/225/568 256/223/566
f 72/31/567 70/29/569 260/227/570 258/225/568
f 70/29/569 68/27/571 262/180/572 260/227/570
f 68/27/571 66/25/521 213/178/524 262/180/572
f 64/23/522 62/21/573 264/175/574 212/174/523
f 94/53/575 92/51/576 266/171/577 210/169/578
f 92/51/576 90/49/579 268/231/580 266/171/577
f 90/49/579 88/47/581 270/233/582 268/231/580
f 88/47/581 86/45/583 272/235/584 270/233/582
f 86/45/583 84/43/585 274/220/586 272/235/584
f 84/43/585 82/41/557 249/218/560 274/220/586
f 62/21/573 60/19/587 276/229/588 264/175/574
f 60/19/587 58/17/589 278/237/590 276/229/588
f 58/17/589 56/15/591 280/239/592 278/237/590
f 56/15/591 54/13/593 282/241/594 280/239/592
f 54/13/593 52/11/595 284/243/596 282/241/594
f 52/11/595 50/9/597 286/245/598 284/243/596
f 50/9/597 48/7/599 288/247/600 286/245/598
f 48/7/599 46/3/601 290/249/602 288/247/600
f 46/3/601 44/2/603 292/251/604 290/249/602
f 44/2/603 174/6/605 294/253/606 292/251/604
f 174/6/605 172/131/607 296/255/608 294/253/606
f 172/131/607 170/129/609 298/257/610 296/255/608
f 170/129/609 168/127/611 300/259/612 298/257/610
f 168/127/611 166/125/613 302/261/614 300/259/612
f 166/125/613 164/123/615 304/263/616 302/261/614
f 164/123/615 162/121/617 306/212/618 304/263/616
f 162/121/617 160/119/619 245/210/620 306/212/618
